[
  {
    "type": "archive",
    "archive-type": "tar-gzip",
    "url": "https://static.crates.io/crates/anyhow/anyhow-1.0.72.crate",
    "sha256": "3b13c32d80ecc7ab747b80c3784bce54ee8a7a0cc4fbda9bf4cda2cf6fe90854",
    "dest": "cargo/vendor/anyhow-1.0.72"
  },
  {
    "type": "inline",
    "contents": "{\"package\": \"3b13c32d80ecc7ab747b80c3784bce54ee8a7a0cc4fbda9bf4cda2cf6fe90854\", \"files\": {}}",
    "dest": "cargo/vendor/anyhow-1.0.72",
    "dest-filename": ".cargo-checksum.json"
  },
  {
    "type": "archive",
    "archive-type": "tar-gzip",
    "url": "https://static.crates.io/crates/arrayvec/arrayvec-0.7.4.crate",
    "sha256": "96d30a06541fbafbc7f82ed10c06164cfbd2c401138f6addd8404629c4b16711",
    "dest": "cargo/vendor/arrayvec-0.7.4"
  },
  {
    "type": "inline",
    "contents": "{\"package\": \"96d30a06541fbafbc7f82ed10c06164cfbd2c401138f6addd8404629c4b16711\", \"files\": {}}",
    "dest": "cargo/vendor/arrayvec-0.7.4",
    "dest-filename": ".cargo-checksum.json"
  },
  {
    "type": "archive",
    "archive-type": "tar-gzip",
    "url": "https://static.crates.io/crates/async-channel/async-channel-1.9.0.crate",
    "sha256": "81953c529336010edd6d8e358f886d9581267795c61b19475b71314bffa46d35",
    "dest": "cargo/vendor/async-channel-1.9.0"
  },
  {
    "type": "inline",
    "contents": "{\"package\": \"81953c529336010edd6d8e358f886d9581267795c61b19475b71314bffa46d35\", \"files\": {}}",
    "dest": "cargo/vendor/async-channel-1.9.0",
    "dest-filename": ".cargo-checksum.json"
  },
  {
    "type": "archive",
    "archive-type": "tar-gzip",
    "url": "https://static.crates.io/crates/async-lock/async-lock-2.7.0.crate",
    "sha256": "fa24f727524730b077666307f2734b4a1a1c57acb79193127dcc8914d5242dd7",
    "dest": "cargo/vendor/async-lock-2.7.0"
  },
  {
    "type": "inline",
    "contents": "{\"package\": \"fa24f727524730b077666307f2734b4a1a1c57acb79193127dcc8914d5242dd7\", \"files\": {}}",
    "dest": "cargo/vendor/async-lock-2.7.0",
    "dest-filename": ".cargo-checksum.json"
  },
  {
    "type": "archive",
    "archive-type": "tar-gzip",
    "url": "https://static.crates.io/crates/async-task/async-task-4.4.0.crate",
    "sha256": "ecc7ab41815b3c653ccd2978ec3255c81349336702dfdf62ee6f7069b12a3aae",
    "dest": "cargo/vendor/async-task-4.4.0"
  },
  {
    "type": "inline",
    "contents": "{\"package\": \"ecc7ab41815b3c653ccd2978ec3255c81349336702dfdf62ee6f7069b12a3aae\", \"files\": {}}",
    "dest": "cargo/vendor/async-task-4.4.0",
    "dest-filename": ".cargo-checksum.json"
  },
  {
    "type": "archive",
    "archive-type": "tar-gzip",
    "url": "https://static.crates.io/crates/atomic-waker/atomic-waker-1.1.1.crate",
    "sha256": "1181e1e0d1fce796a03db1ae795d67167da795f9cf4a39c37589e85ef57f26d3",
    "dest": "cargo/vendor/atomic-waker-1.1.1"
  },
  {
    "type": "inline",
    "contents": "{\"package\": \"1181e1e0d1fce796a03db1ae795d67167da795f9cf4a39c37589e85ef57f26d3\", \"files\": {}}",
    "dest": "cargo/vendor/atomic-waker-1.1.1",
    "dest-filename": ".cargo-checksum.json"
  },
  {
    "type": "archive",
    "archive-type": "tar-gzip",
    "url": "https://static.crates.io/crates/autocfg/autocfg-1.1.0.crate",
    "sha256": "d468802bab17cbc0cc575e9b053f41e72aa36bfa6b7f55e3529ffa43161b97fa",
    "dest": "cargo/vendor/autocfg-1.1.0"
  },
  {
    "type": "inline",
    "contents": "{\"package\": \"d468802bab17cbc0cc575e9b053f41e72aa36bfa6b7f55e3529ffa43161b97fa\", \"files\": {}}",
    "dest": "cargo/vendor/autocfg-1.1.0",
    "dest-filename": ".cargo-checksum.json"
  },
  {
    "type": "archive",
    "archive-type": "tar-gzip",
    "url": "https://static.crates.io/crates/bitflags/bitflags-1.3.2.crate",
    "sha256": "bef38d45163c2f1dde094a7dfd33ccf595c92905c8f8f4fdc18d06fb1037718a",
    "dest": "cargo/vendor/bitflags-1.3.2"
  },
  {
    "type": "inline",
    "contents": "{\"package\": \"bef38d45163c2f1dde094a7dfd33ccf595c92905c8f8f4fdc18d06fb1037718a\", \"files\": {}}",
    "dest": "cargo/vendor/bitflags-1.3.2",
    "dest-filename": ".cargo-checksum.json"
  },
  {
    "type": "archive",
    "archive-type": "tar-gzip",
    "url": "https://static.crates.io/crates/blocking/blocking-1.3.1.crate",
    "sha256": "77231a1c8f801696fc0123ec6150ce92cffb8e164a02afb9c8ddee0e9b65ad65",
    "dest": "cargo/vendor/blocking-1.3.1"
  },
  {
    "type": "inline",
    "contents": "{\"package\": \"77231a1c8f801696fc0123ec6150ce92cffb8e164a02afb9c8ddee0e9b65ad65\", \"files\": {}}",
    "dest": "cargo/vendor/blocking-1.3.1",
    "dest-filename": ".cargo-checksum.json"
  },
  {
    "type": "archive",
    "archive-type": "tar-gzip",
    "url": "https://static.crates.io/crates/cfg-if/cfg-if-1.0.0.crate",
    "sha256": "baf1de4339761588bc0619e3cbc0120ee582ebb74b53b4efbf79117bd2da40fd",
    "dest": "cargo/vendor/cfg-if-1.0.0"
  },
  {
    "type": "inline",
    "contents": "{\"package\": \"baf1de4339761588bc0619e3cbc0120ee582ebb74b53b4efbf79117bd2da40fd\", \"files\": {}}",
    "dest": "cargo/vendor/cfg-if-1.0.0",
    "dest-filename": ".cargo-checksum.json"
  },
  {
    "type": "archive",
    "archive-type": "tar-gzip",
    "url": "https://static.crates.io/crates/concurrent-queue/concurrent-queue-2.2.0.crate",
    "sha256": "62ec6771ecfa0762d24683ee5a32ad78487a3d3afdc0fb8cae19d2c5deb50b7c",
    "dest": "cargo/vendor/concurrent-queue-2.2.0"
  },
  {
    "type": "inline",
    "contents": "{\"package\": \"62ec6771ecfa0762d24683ee5a32ad78487a3d3afdc0fb8cae19d2c5deb50b7c\", \"files\": {}}",
    "dest": "cargo/vendor/concurrent-queue-2.2.0",
    "dest-filename": ".cargo-checksum.json"
  },
  {
    "type": "archive",
    "archive-type": "tar-gzip",
    "url": "https://static.crates.io/crates/const-random/const-random-0.1.15.crate",
    "sha256": "368a7a772ead6ce7e1de82bfb04c485f3db8ec744f72925af5735e29a22cc18e",
    "dest": "cargo/vendor/const-random-0.1.15"
  },
  {
    "type": "inline",
    "contents": "{\"package\": \"368a7a772ead6ce7e1de82bfb04c485f3db8ec744f72925af5735e29a22cc18e\", \"files\": {}}",
    "dest": "cargo/vendor/const-random-0.1.15",
    "dest-filename": ".cargo-checksum.json"
  },
  {
    "type": "archive",
    "archive-type": "tar-gzip",
    "url": "https://static.crates.io/crates/const-random-macro/const-random-macro-0.1.15.crate",
    "sha256": "9d7d6ab3c3a2282db210df5f02c4dab6e0a7057af0fb7ebd4070f30fe05c0ddb",
    "dest": "cargo/vendor/const-random-macro-0.1.15"
  },
  {
    "type": "inline",
    "contents": "{\"package\": \"9d7d6ab3c3a2282db210df5f02c4dab6e0a7057af0fb7ebd4070f30fe05c0ddb\", \"files\": {}}",
    "dest": "cargo/vendor/const-random-macro-0.1.15",
    "dest-filename": ".cargo-checksum.json"
  },
  {
    "type": "archive",
    "archive-type": "tar-gzip",
    "url": "https://static.crates.io/crates/crossbeam-utils/crossbeam-utils-0.8.16.crate",
    "sha256": "5a22b2d63d4d1dc0b7f1b6b2747dd0088008a9be28b6ddf0b1e7d335e3037294",
    "dest": "cargo/vendor/crossbeam-utils-0.8.16"
  },
  {
    "type": "inline",
    "contents": "{\"package\": \"5a22b2d63d4d1dc0b7f1b6b2747dd0088008a9be28b6ddf0b1e7d335e3037294\", \"files\": {}}",
    "dest": "cargo/vendor/crossbeam-utils-0.8.16",
    "dest-filename": ".cargo-checksum.json"
  },
  {
    "type": "archive",
    "archive-type": "tar-gzip",
    "url": "https://static.crates.io/crates/crunchy/crunchy-0.2.2.crate",
    "sha256": "7a81dae078cea95a014a339291cec439d2f232ebe854a9d672b796c6afafa9b7",
    "dest": "cargo/vendor/crunchy-0.2.2"
  },
  {
    "type": "inline",
    "contents": "{\"package\": \"7a81dae078cea95a014a339291cec439d2f232ebe854a9d672b796c6afafa9b7\", \"files\": {}}",
    "dest": "cargo/vendor/crunchy-0.2.2",
    "dest-filename": ".cargo-checksum.json"
  },
  {
    "type": "archive",
    "archive-type": "tar-gzip",
    "url": "https://static.crates.io/crates/dlv-list/dlv-list-0.5.0.crate",
    "sha256": "d529fd73d344663edfd598ccb3f344e46034db51ebd103518eae34338248ad73",
    "dest": "cargo/vendor/dlv-list-0.5.0"
  },
  {
    "type": "inline",
    "contents": "{\"package\": \"d529fd73d344663edfd598ccb3f344e46034db51ebd103518eae34338248ad73\", \"files\": {}}",
    "dest": "cargo/vendor/dlv-list-0.5.0",
    "dest-filename": ".cargo-checksum.json"
  },
  {
    "type": "archive",
    "archive-type": "tar-gzip",
    "url": "https://static.crates.io/crates/event-listener/event-listener-2.5.3.crate",
    "sha256": "0206175f82b8d6bf6652ff7d71a1e27fd2e4efde587fd368662814d6ec1d9ce0",
    "dest": "cargo/vendor/event-listener-2.5.3"
  },
  {
    "type": "inline",
    "contents": "{\"package\": \"0206175f82b8d6bf6652ff7d71a1e27fd2e4efde587fd368662814d6ec1d9ce0\", \"files\": {}}",
    "dest": "cargo/vendor/event-listener-2.5.3",
    "dest-filename": ".cargo-checksum.json"
  },
  {
    "type": "archive",
    "archive-type": "tar-gzip",
    "url": "https://static.crates.io/crates/fastrand/fastrand-1.9.0.crate",
    "sha256": "e51093e27b0797c359783294ca4f0a911c270184cb10f85783b118614a1501be",
    "dest": "cargo/vendor/fastrand-1.9.0"
  },
  {
    "type": "inline",
    "contents": "{\"package\": \"e51093e27b0797c359783294ca4f0a911c270184cb10f85783b118614a1501be\", \"files\": {}}",
    "dest": "cargo/vendor/fastrand-1.9.0",
    "dest-filename": ".cargo-checksum.json"
  },
  {
    "type": "archive",
    "archive-type": "tar-gzip",
    "url": "https://static.crates.io/crates/futures-core/futures-core-0.3.28.crate",
    "sha256": "4bca583b7e26f571124fe5b7561d49cb2868d79116cfa0eefce955557c6fee8c",
    "dest": "cargo/vendor/futures-core-0.3.28"
  },
  {
    "type": "inline",
    "contents": "{\"package\": \"4bca583b7e26f571124fe5b7561d49cb2868d79116cfa0eefce955557c6fee8c\", \"files\": {}}",
    "dest": "cargo/vendor/futures-core-0.3.28",
    "dest-filename": ".cargo-checksum.json"
  },
  {
    "type": "archive",
    "archive-type": "tar-gzip",
    "url": "https://static.crates.io/crates/futures-io/futures-io-0.3.28.crate",
    "sha256": "4fff74096e71ed47f8e023204cfd0aa1289cd54ae5430a9523be060cdb849964",
    "dest": "cargo/vendor/futures-io-0.3.28"
  },
  {
    "type": "inline",
    "contents": "{\"package\": \"4fff74096e71ed47f8e023204cfd0aa1289cd54ae5430a9523be060cdb849964\", \"files\": {}}",
    "dest": "cargo/vendor/futures-io-0.3.28",
    "dest-filename": ".cargo-checksum.json"
  },
  {
    "type": "archive",
    "archive-type": "tar-gzip",
    "url": "https://static.crates.io/crates/futures-lite/futures-lite-1.13.0.crate",
    "sha256": "49a9d51ce47660b1e808d3c990b4709f2f415d928835a17dfd16991515c46bce",
    "dest": "cargo/vendor/futures-lite-1.13.0"
  },
  {
    "type": "inline",
    "contents": "{\"package\": \"49a9d51ce47660b1e808d3c990b4709f2f415d928835a17dfd16991515c46bce\", \"files\": {}}",
    "dest": "cargo/vendor/futures-lite-1.13.0",
    "dest-filename": ".cargo-checksum.json"
  },
  {
    "type": "archive",
    "archive-type": "tar-gzip",
    "url": "https://static.crates.io/crates/getrandom/getrandom-0.2.10.crate",
    "sha256": "be4136b2a15dd319360be1c07d9933517ccf0be8f16bf62a3bee4f0d618df427",
    "dest": "cargo/vendor/getrandom-0.2.10"
  },
  {
    "type": "inline",
    "contents": "{\"package\": \"be4136b2a15dd319360be1c07d9933517ccf0be8f16bf62a3bee4f0d618df427\", \"files\": {}}",
    "dest": "cargo/vendor/getrandom-0.2.10",
    "dest-filename": ".cargo-checksum.json"
  },
  {
    "type": "archive",
    "archive-type": "tar-gzip",
    "url": "https://static.crates.io/crates/hashbrown/hashbrown-0.13.2.crate",
    "sha256": "43a3c133739dddd0d2990f9a4bdf8eb4b21ef50e4851ca85ab661199821d510e",
    "dest": "cargo/vendor/hashbrown-0.13.2"
  },
  {
    "type": "inline",
    "contents": "{\"package\": \"43a3c133739dddd0d2990f9a4bdf8eb4b21ef50e4851ca85ab661199821d510e\", \"files\": {}}",
    "dest": "cargo/vendor/hashbrown-0.13.2",
    "dest-filename": ".cargo-checksum.json"
  },
  {
    "type": "archive",
    "archive-type": "tar-gzip",
    "url": "https://static.crates.io/crates/hermit-abi/hermit-abi-0.3.2.crate",
    "sha256": "443144c8cdadd93ebf52ddb4056d257f5b52c04d3c804e657d19eb73fc33668b",
    "dest": "cargo/vendor/hermit-abi-0.3.2"
  },
  {
    "type": "inline",
    "contents": "{\"package\": \"443144c8cdadd93ebf52ddb4056d257f5b52c04d3c804e657d19eb73fc33668b\", \"files\": {}}",
    "dest": "cargo/vendor/hermit-abi-0.3.2",
    "dest-filename": ".cargo-checksum.json"
  },
  {
    "type": "archive",
    "archive-type": "tar-gzip",
    "url": "https://static.crates.io/crates/instant/instant-0.1.12.crate",
    "sha256": "7a5bbe824c507c5da5956355e86a746d82e0e1464f65d862cc5e71da70e94b2c",
    "dest": "cargo/vendor/instant-0.1.12"
  },
  {
    "type": "inline",
    "contents": "{\"package\": \"7a5bbe824c507c5da5956355e86a746d82e0e1464f65d862cc5e71da70e94b2c\", \"files\": {}}",
    "dest": "cargo/vendor/instant-0.1.12",
    "dest-filename": ".cargo-checksum.json"
  },
  {
    "type": "archive",
    "archive-type": "tar-gzip",
    "url": "https://static.crates.io/crates/interprocess/interprocess-1.2.1.crate",
    "sha256": "81f2533f3be42fffe3b5e63b71aeca416c1c3bc33e4e27be018521e76b1f38fb",
    "dest": "cargo/vendor/interprocess-1.2.1"
  },
  {
    "type": "inline",
    "contents": "{\"package\": \"81f2533f3be42fffe3b5e63b71aeca416c1c3bc33e4e27be018521e76b1f38fb\", \"files\": {}}",
    "dest": "cargo/vendor/interprocess-1.2.1",
    "dest-filename": ".cargo-checksum.json"
  },
  {
    "type": "archive",
    "archive-type": "tar-gzip",
    "url": "https://static.crates.io/crates/intmap/intmap-0.7.1.crate",
    "sha256": "ae52f28f45ac2bc96edb7714de995cffc174a395fb0abf5bff453587c980d7b9",
    "dest": "cargo/vendor/intmap-0.7.1"
  },
  {
    "type": "inline",
    "contents": "{\"package\": \"ae52f28f45ac2bc96edb7714de995cffc174a395fb0abf5bff453587c980d7b9\", \"files\": {}}",
    "dest": "cargo/vendor/intmap-0.7.1",
    "dest-filename": ".cargo-checksum.json"
  },
  {
    "type": "archive",
    "archive-type": "tar-gzip",
    "url": "https://static.crates.io/crates/lazy_static/lazy_static-1.4.0.crate",
    "sha256": "e2abad23fbc42b3700f2f279844dc832adb2b2eb069b2df918f455c4e18cc646",
    "dest": "cargo/vendor/lazy_static-1.4.0"
  },
  {
    "type": "inline",
    "contents": "{\"package\": \"e2abad23fbc42b3700f2f279844dc832adb2b2eb069b2df918f455c4e18cc646\", \"files\": {}}",
    "dest": "cargo/vendor/lazy_static-1.4.0",
    "dest-filename": ".cargo-checksum.json"
  },
  {
    "type": "archive",
    "archive-type": "tar-gzip",
    "url": "https://static.crates.io/crates/libc/libc-0.2.147.crate",
    "sha256": "b4668fb0ea861c1df094127ac5f1da3409a82116a4ba74fca2e58ef927159bb3",
    "dest": "cargo/vendor/libc-0.2.147"
  },
  {
    "type": "inline",
    "contents": "{\"package\": \"b4668fb0ea861c1df094127ac5f1da3409a82116a4ba74fca2e58ef927159bb3\", \"files\": {}}",
    "dest": "cargo/vendor/libc-0.2.147",
    "dest-filename": ".cargo-checksum.json"
  },
  {
    "type": "archive",
    "archive-type": "tar-gzip",
    "url": "https://static.crates.io/crates/lock_api/lock_api-0.4.10.crate",
    "sha256": "c1cc9717a20b1bb222f333e6a92fd32f7d8a18ddc5a3191a11af45dcbf4dcd16",
    "dest": "cargo/vendor/lock_api-0.4.10"
  },
  {
    "type": "inline",
    "contents": "{\"package\": \"c1cc9717a20b1bb222f333e6a92fd32f7d8a18ddc5a3191a11af45dcbf4dcd16\", \"files\": {}}",
    "dest": "cargo/vendor/lock_api-0.4.10",
    "dest-filename": ".cargo-checksum.json"
  },
  {
    "type": "archive",
    "archive-type": "tar-gzip",
    "url": "https://static.crates.io/crates/log/log-0.4.19.crate",
    "sha256": "b06a4cde4c0f271a446782e3eff8de789548ce57dbc8eca9292c27f4a42004b4",
    "dest": "cargo/vendor/log-0.4.19"
  },
  {
    "type": "inline",
    "contents": "{\"package\": \"b06a4cde4c0f271a446782e3eff8de789548ce57dbc8eca9292c27f4a42004b4\", \"files\": {}}",
    "dest": "cargo/vendor/log-0.4.19",
    "dest-filename": ".cargo-checksum.json"
  },
  {
    "type": "archive",
    "archive-type": "tar-gzip",
    "url": "https://static.crates.io/crates/memchr/memchr-2.5.0.crate",
    "sha256": "2dffe52ecf27772e601905b7522cb4ef790d2cc203488bbd0e2fe85fcb74566d",
    "dest": "cargo/vendor/memchr-2.5.0"
  },
  {
    "type": "inline",
    "contents": "{\"package\": \"2dffe52ecf27772e601905b7522cb4ef790d2cc203488bbd0e2fe85fcb74566d\", \"files\": {}}",
    "dest": "cargo/vendor/memchr-2.5.0",
    "dest-filename": ".cargo-checksum.json"
  },
  {
    "type": "archive",
    "archive-type": "tar-gzip",
    "url": "https://static.crates.io/crates/nix/nix-0.26.2.crate",
    "sha256": "bfdda3d196821d6af13126e40375cdf7da646a96114af134d5f417a9a1dc8e1a",
    "dest": "cargo/vendor/nix-0.26.2"
  },
  {
    "type": "inline",
    "contents": "{\"package\": \"bfdda3d196821d6af13126e40375cdf7da646a96114af134d5f417a9a1dc8e1a\", \"files\": {}}",
    "dest": "cargo/vendor/nix-0.26.2",
    "dest-filename": ".cargo-checksum.json"
  },
  {
    "type": "archive",
    "archive-type": "tar-gzip",
    "url": "https://static.crates.io/crates/num_cpus/num_cpus-1.16.0.crate",
    "sha256": "4161fcb6d602d4d2081af7c3a45852d875a03dd337a6bfdd6e06407b61342a43",
    "dest": "cargo/vendor/num_cpus-1.16.0"
  },
  {
    "type": "inline",
    "contents": "{\"package\": \"4161fcb6d602d4d2081af7c3a45852d875a03dd337a6bfdd6e06407b61342a43\", \"files\": {}}",
    "dest": "cargo/vendor/num_cpus-1.16.0",
    "dest-filename": ".cargo-checksum.json"
  },
  {
    "type": "archive",
    "archive-type": "tar-gzip",
    "url": "https://static.crates.io/crates/once_cell/once_cell-1.18.0.crate",
    "sha256": "dd8b5dd2ae5ed71462c540258bedcb51965123ad7e7ccf4b9a8cafaa4a63576d",
    "dest": "cargo/vendor/once_cell-1.18.0"
  },
  {
    "type": "inline",
    "contents": "{\"package\": \"dd8b5dd2ae5ed71462c540258bedcb51965123ad7e7ccf4b9a8cafaa4a63576d\", \"files\": {}}",
    "dest": "cargo/vendor/once_cell-1.18.0",
    "dest-filename": ".cargo-checksum.json"
  },
  {
    "type": "archive",
    "archive-type": "tar-gzip",
    "url": "https://static.crates.io/crates/ordered-multimap/ordered-multimap-0.6.0.crate",
    "sha256": "4ed8acf08e98e744e5384c8bc63ceb0364e68a6854187221c18df61c4797690e",
    "dest": "cargo/vendor/ordered-multimap-0.6.0"
  },
  {
    "type": "inline",
    "contents": "{\"package\": \"4ed8acf08e98e744e5384c8bc63ceb0364e68a6854187221c18df61c4797690e\", \"files\": {}}",
    "dest": "cargo/vendor/ordered-multimap-0.6.0",
    "dest-filename": ".cargo-checksum.json"
  },
  {
    "type": "archive",
    "archive-type": "tar-gzip",
    "url": "https://static.crates.io/crates/parking/parking-2.1.0.crate",
    "sha256": "14f2252c834a40ed9bb5422029649578e63aa341ac401f74e719dd1afda8394e",
    "dest": "cargo/vendor/parking-2.1.0"
  },
  {
    "type": "inline",
    "contents": "{\"package\": \"14f2252c834a40ed9bb5422029649578e63aa341ac401f74e719dd1afda8394e\", \"files\": {}}",
    "dest": "cargo/vendor/parking-2.1.0",
    "dest-filename": ".cargo-checksum.json"
  },
  {
    "type": "archive",
    "archive-type": "tar-gzip",
    "url": "https://static.crates.io/crates/pin-project-lite/pin-project-lite-0.2.10.crate",
    "sha256": "4c40d25201921e5ff0c862a505c6557ea88568a4e3ace775ab55e93f2f4f9d57",
    "dest": "cargo/vendor/pin-project-lite-0.2.10"
  },
  {
    "type": "inline",
    "contents": "{\"package\": \"4c40d25201921e5ff0c862a505c6557ea88568a4e3ace775ab55e93f2f4f9d57\", \"files\": {}}",
    "dest": "cargo/vendor/pin-project-lite-0.2.10",
    "dest-filename": ".cargo-checksum.json"
  },
  {
    "type": "archive",
    "archive-type": "tar-gzip",
    "url": "https://static.crates.io/crates/ppv-lite86/ppv-lite86-0.2.17.crate",
    "sha256": "5b40af805b3121feab8a3c29f04d8ad262fa8e0561883e7653e024ae4479e6de",
    "dest": "cargo/vendor/ppv-lite86-0.2.17"
  },
  {
    "type": "inline",
    "contents": "{\"package\": \"5b40af805b3121feab8a3c29f04d8ad262fa8e0561883e7653e024ae4479e6de\", \"files\": {}}",
    "dest": "cargo/vendor/ppv-lite86-0.2.17",
    "dest-filename": ".cargo-checksum.json"
  },
  {
    "type": "archive",
    "archive-type": "tar-gzip",
    "url": "https://static.crates.io/crates/proc-macro-hack/proc-macro-hack-0.5.20+deprecated.crate",
    "sha256": "dc375e1527247fe1a97d8b7156678dfe7c1af2fc075c9a4db3690ecd2a148068",
    "dest": "cargo/vendor/proc-macro-hack-0.5.20+deprecated"
  },
  {
    "type": "inline",
    "contents": "{\"package\": \"dc375e1527247fe1a97d8b7156678dfe7c1af2fc075c9a4db3690ecd2a148068\", \"files\": {}}",
    "dest": "cargo/vendor/proc-macro-hack-0.5.20+deprecated",
    "dest-filename": ".cargo-checksum.json"
  },
  {
    "type": "archive",
    "archive-type": "tar-gzip",
    "url": "https://static.crates.io/crates/proc-macro2/proc-macro2-1.0.66.crate",
    "sha256": "18fb31db3f9bddb2ea821cde30a9f70117e3f119938b5ee630b7403aa6e2ead9",
    "dest": "cargo/vendor/proc-macro2-1.0.66"
  },
  {
    "type": "inline",
    "contents": "{\"package\": \"18fb31db3f9bddb2ea821cde30a9f70117e3f119938b5ee630b7403aa6e2ead9\", \"files\": {}}",
    "dest": "cargo/vendor/proc-macro2-1.0.66",
    "dest-filename": ".cargo-checksum.json"
  },
  {
    "type": "archive",
    "archive-type": "tar-gzip",
    "url": "https://static.crates.io/crates/quote/quote-1.0.32.crate",
    "sha256": "50f3b39ccfb720540debaa0164757101c08ecb8d326b15358ce76a62c7e85965",
    "dest": "cargo/vendor/quote-1.0.32"
  },
  {
    "type": "inline",
    "contents": "{\"package\": \"50f3b39ccfb720540debaa0164757101c08ecb8d326b15358ce76a62c7e85965\", \"files\": {}}",
    "dest": "cargo/vendor/quote-1.0.32",
    "dest-filename": ".cargo-checksum.json"
  },
  {
    "type": "archive",
    "archive-type": "tar-gzip",
    "url": "https://static.crates.io/crates/rand/rand-0.8.5.crate",
    "sha256": "34af8d1a0e25924bc5b7c43c079c942339d8f0a8b57c39049bef581b46327404",
    "dest": "cargo/vendor/rand-0.8.5"
  },
  {
    "type": "inline",
    "contents": "{\"package\": \"34af8d1a0e25924bc5b7c43c079c942339d8f0a8b57c39049bef581b46327404\", \"files\": {}}",
    "dest": "cargo/vendor/rand-0.8.5",
    "dest-filename": ".cargo-checksum.json"
  },
  {
    "type": "archive",
    "archive-type": "tar-gzip",
    "url": "https://static.crates.io/crates/rand_chacha/rand_chacha-0.3.1.crate",
    "sha256": "e6c10a63a0fa32252be49d21e7709d4d4baf8d231c2dbce1eaa8141b9b127d88",
    "dest": "cargo/vendor/rand_chacha-0.3.1"
  },
  {
    "type": "inline",
    "contents": "{\"package\": \"e6c10a63a0fa32252be49d21e7709d4d4baf8d231c2dbce1eaa8141b9b127d88\", \"files\": {}}",
    "dest": "cargo/vendor/rand_chacha-0.3.1",
    "dest-filename": ".cargo-checksum.json"
  },
  {
    "type": "archive",
    "archive-type": "tar-gzip",
    "url": "https://static.crates.io/crates/rand_core/rand_core-0.6.4.crate",
    "sha256": "ec0be4795e2f6a28069bec0b5ff3e2ac9bafc99e6a9a7dc3547996c5c816922c",
    "dest": "cargo/vendor/rand_core-0.6.4"
  },
  {
    "type": "inline",
    "contents": "{\"package\": \"ec0be4795e2f6a28069bec0b5ff3e2ac9bafc99e6a9a7dc3547996c5c816922c\", \"files\": {}}",
    "dest": "cargo/vendor/rand_core-0.6.4",
    "dest-filename": ".cargo-checksum.json"
  },
  {
    "type": "archive",
    "archive-type": "tar-gzip",
    "url": "https://static.crates.io/crates/rust-ini/rust-ini-0.19.0.crate",
    "sha256": "7e2a3bcec1f113553ef1c88aae6c020a369d03d55b58de9869a0908930385091",
    "dest": "cargo/vendor/rust-ini-0.19.0"
  },
  {
    "type": "inline",
    "contents": "{\"package\": \"7e2a3bcec1f113553ef1c88aae6c020a369d03d55b58de9869a0908930385091\", \"files\": {}}",
    "dest": "cargo/vendor/rust-ini-0.19.0",
    "dest-filename": ".cargo-checksum.json"
  },
  {
    "type": "archive",
    "archive-type": "tar-gzip",
    "url": "https://static.crates.io/crates/rustc_version/rustc_version-0.4.0.crate",
    "sha256": "bfa0f585226d2e68097d4f95d113b15b83a82e819ab25717ec0590d9584ef366",
    "dest": "cargo/vendor/rustc_version-0.4.0"
  },
  {
    "type": "inline",
    "contents": "{\"package\": \"bfa0f585226d2e68097d4f95d113b15b83a82e819ab25717ec0590d9584ef366\", \"files\": {}}",
    "dest": "cargo/vendor/rustc_version-0.4.0",
    "dest-filename": ".cargo-checksum.json"
  },
  {
    "type": "archive",
    "archive-type": "tar-gzip",
    "url": "https://static.crates.io/crates/scopeguard/scopeguard-1.2.0.crate",
    "sha256": "94143f37725109f92c262ed2cf5e59bce7498c01bcc1502d7b9afe439a4e9f49",
    "dest": "cargo/vendor/scopeguard-1.2.0"
  },
  {
    "type": "inline",
    "contents": "{\"package\": \"94143f37725109f92c262ed2cf5e59bce7498c01bcc1502d7b9afe439a4e9f49\", \"files\": {}}",
    "dest": "cargo/vendor/scopeguard-1.2.0",
    "dest-filename": ".cargo-checksum.json"
  },
  {
    "type": "archive",
    "archive-type": "tar-gzip",
    "url": "https://static.crates.io/crates/semver/semver-1.0.18.crate",
    "sha256": "b0293b4b29daaf487284529cc2f5675b8e57c61f70167ba415a463651fd6a918",
    "dest": "cargo/vendor/semver-1.0.18"
  },
  {
    "type": "inline",
    "contents": "{\"package\": \"b0293b4b29daaf487284529cc2f5675b8e57c61f70167ba415a463651fd6a918\", \"files\": {}}",
    "dest": "cargo/vendor/semver-1.0.18",
    "dest-filename": ".cargo-checksum.json"
  },
  {
    "type": "archive",
    "archive-type": "tar-gzip",
    "url": "https://static.crates.io/crates/shared_memory_extended/shared_memory_extended-0.13.0.crate",
    "sha256": "004d7ece9a3be64f85471d50967710b0a146144225bed5f0abd0514a3bed086f",
    "dest": "cargo/vendor/shared_memory_extended-0.13.0"
  },
  {
    "type": "inline",
    "contents": "{\"package\": \"004d7ece9a3be64f85471d50967710b0a146144225bed5f0abd0514a3bed086f\", \"files\": {}}",
    "dest": "cargo/vendor/shared_memory_extended-0.13.0",
    "dest-filename": ".cargo-checksum.json"
  },
  {
    "type": "archive",
    "archive-type": "tar-gzip",
    "url": "https://static.crates.io/crates/spinning/spinning-0.1.0.crate",
    "sha256": "2d4f0e86297cad2658d92a707320d87bf4e6ae1050287f51d19b67ef3f153a7b",
    "dest": "cargo/vendor/spinning-0.1.0"
  },
  {
    "type": "inline",
    "contents": "{\"package\": \"2d4f0e86297cad2658d92a707320d87bf4e6ae1050287f51d19b67ef3f153a7b\", \"files\": {}}",
    "dest": "cargo/vendor/spinning-0.1.0",
    "dest-filename": ".cargo-checksum.json"
  },
  {
    "type": "archive",
    "archive-type": "tar-gzip",
    "url": "https://static.crates.io/crates/static_assertions/static_assertions-1.1.0.crate",
    "sha256": "a2eb9349b6444b326872e140eb1cf5e7c522154d69e7a0ffb0fb81c06b37543f",
    "dest": "cargo/vendor/static_assertions-1.1.0"
  },
  {
    "type": "inline",
    "contents": "{\"package\": \"a2eb9349b6444b326872e140eb1cf5e7c522154d69e7a0ffb0fb81c06b37543f\", \"files\": {}}",
    "dest": "cargo/vendor/static_assertions-1.1.0",
    "dest-filename": ".cargo-checksum.json"
  },
  {
    "type": "archive",
    "archive-type": "tar-gzip",
    "url": "https://static.crates.io/crates/syn/syn-2.0.27.crate",
    "sha256": "b60f673f44a8255b9c8c657daf66a596d435f2da81a555b06dc644d080ba45e0",
    "dest": "cargo/vendor/syn-2.0.27"
  },
  {
    "type": "inline",
    "contents": "{\"package\": \"b60f673f44a8255b9c8c657daf66a596d435f2da81a555b06dc644d080ba45e0\", \"files\": {}}",
    "dest": "cargo/vendor/syn-2.0.27",
    "dest-filename": ".cargo-checksum.json"
  },
  {
    "type": "archive",
    "archive-type": "tar-gzip",
    "url": "https://static.crates.io/crates/thiserror/thiserror-1.0.44.crate",
    "sha256": "611040a08a0439f8248d1990b111c95baa9c704c805fa1f62104b39655fd7f90",
    "dest": "cargo/vendor/thiserror-1.0.44"
  },
  {
    "type": "inline",
    "contents": "{\"package\": \"611040a08a0439f8248d1990b111c95baa9c704c805fa1f62104b39655fd7f90\", \"files\": {}}",
    "dest": "cargo/vendor/thiserror-1.0.44",
    "dest-filename": ".cargo-checksum.json"
  },
  {
    "type": "archive",
    "archive-type": "tar-gzip",
    "url": "https://static.crates.io/crates/thiserror-impl/thiserror-impl-1.0.44.crate",
    "sha256": "090198534930841fab3a5d1bb637cde49e339654e606195f8d9c76eeb081dc96",
    "dest": "cargo/vendor/thiserror-impl-1.0.44"
  },
  {
    "type": "inline",
    "contents": "{\"package\": \"090198534930841fab3a5d1bb637cde49e339654e606195f8d9c76eeb081dc96\", \"files\": {}}",
    "dest": "cargo/vendor/thiserror-impl-1.0.44",
    "dest-filename": ".cargo-checksum.json"
  },
  {
    "type": "archive",
    "archive-type": "tar-gzip",
    "url": "https://static.crates.io/crates/tiny-keccak/tiny-keccak-2.0.2.crate",
    "sha256": "2c9d3793400a45f954c52e73d068316d76b6f4e36977e3fcebb13a2721e80237",
    "dest": "cargo/vendor/tiny-keccak-2.0.2"
  },
  {
    "type": "inline",
    "contents": "{\"package\": \"2c9d3793400a45f954c52e73d068316d76b6f4e36977e3fcebb13a2721e80237\", \"files\": {}}",
    "dest": "cargo/vendor/tiny-keccak-2.0.2",
    "dest-filename": ".cargo-checksum.json"
  },
  {
    "type": "archive",
    "archive-type": "tar-gzip",
    "url": "https://static.crates.io/crates/to_method/to_method-1.1.0.crate",
    "sha256": "c7c4ceeeca15c8384bbc3e011dbd8fccb7f068a440b752b7d9b32ceb0ca0e2e8",
    "dest": "cargo/vendor/to_method-1.1.0"
  },
  {
    "type": "inline",
    "contents": "{\"package\": \"c7c4ceeeca15c8384bbc3e011dbd8fccb7f068a440b752b7d9b32ceb0ca0e2e8\", \"files\": {}}",
    "dest": "cargo/vendor/to_method-1.1.0",
    "dest-filename": ".cargo-checksum.json"
  },
  {
    "type": "archive",
    "archive-type": "tar-gzip",
    "url": "https://static.crates.io/crates/unicode-ident/unicode-ident-1.0.11.crate",
    "sha256": "301abaae475aa91687eb82514b328ab47a211a533026cb25fc3e519b86adfc3c",
    "dest": "cargo/vendor/unicode-ident-1.0.11"
  },
  {
    "type": "inline",
    "contents": "{\"package\": \"301abaae475aa91687eb82514b328ab47a211a533026cb25fc3e519b86adfc3c\", \"files\": {}}",
    "dest": "cargo/vendor/unicode-ident-1.0.11",
    "dest-filename": ".cargo-checksum.json"
  },
  {
    "type": "archive",
    "archive-type": "tar-gzip",
    "url": "https://static.crates.io/crates/waker-fn/waker-fn-1.1.0.crate",
    "sha256": "9d5b2c62b4012a3e1eca5a7e077d13b3bf498c4073e33ccd58626607748ceeca",
    "dest": "cargo/vendor/waker-fn-1.1.0"
  },
  {
    "type": "inline",
    "contents": "{\"package\": \"9d5b2c62b4012a3e1eca5a7e077d13b3bf498c4073e33ccd58626607748ceeca\", \"files\": {}}",
    "dest": "cargo/vendor/waker-fn-1.1.0",
    "dest-filename": ".cargo-checksum.json"
  },
  {
    "type": "archive",
    "archive-type": "tar-gzip",
    "url": "https://static.crates.io/crates/wasi/wasi-0.11.0+wasi-snapshot-preview1.crate",
    "sha256": "9c8d87e72b64a3b4db28d11ce29237c246188f4f51057d65a7eab63b7987e423",
    "dest": "cargo/vendor/wasi-0.11.0+wasi-snapshot-preview1"
  },
  {
    "type": "inline",
    "contents": "{\"package\": \"9c8d87e72b64a3b4db28d11ce29237c246188f4f51057d65a7eab63b7987e423\", \"files\": {}}",
    "dest": "cargo/vendor/wasi-0.11.0+wasi-snapshot-preview1",
    "dest-filename": ".cargo-checksum.json"
  },
  {
    "type": "archive",
    "archive-type": "tar-gzip",
    "url": "https://static.crates.io/crates/win-sys/win-sys-0.3.1.crate",
    "sha256": "5b7b128a98c1cfa201b09eb49ba285887deb3cbe7466a98850eb1adabb452be5",
    "dest": "cargo/vendor/win-sys-0.3.1"
  },
  {
    "type": "inline",
    "contents": "{\"package\": \"5b7b128a98c1cfa201b09eb49ba285887deb3cbe7466a98850eb1adabb452be5\", \"files\": {}}",
    "dest": "cargo/vendor/win-sys-0.3.1",
    "dest-filename": ".cargo-checksum.json"
  },
  {
    "type": "archive",
    "archive-type": "tar-gzip",
    "url": "https://static.crates.io/crates/winapi/winapi-0.3.9.crate",
    "sha256": "5c839a674fcd7a98952e593242ea400abe93992746761e38641405d28b00f419",
    "dest": "cargo/vendor/winapi-0.3.9"
  },
  {
    "type": "inline",
    "contents": "{\"package\": \"5c839a674fcd7a98952e593242ea400abe93992746761e38641405d28b00f419\", \"files\": {}}",
    "dest": "cargo/vendor/winapi-0.3.9",
    "dest-filename": ".cargo-checksum.json"
  },
  {
    "type": "archive",
    "archive-type": "tar-gzip",
    "url": "https://static.crates.io/crates/winapi-i686-pc-windows-gnu/winapi-i686-pc-windows-gnu-0.4.0.crate",
    "sha256": "ac3b87c63620426dd9b991e5ce0329eff545bccbbb34f3be09ff6fb6ab51b7b6",
    "dest": "cargo/vendor/winapi-i686-pc-windows-gnu-0.4.0"
  },
  {
    "type": "inline",
    "contents": "{\"package\": \"ac3b87c63620426dd9b991e5ce0329eff545bccbbb34f3be09ff6fb6ab51b7b6\", \"files\": {}}",
    "dest": "cargo/vendor/winapi-i686-pc-windows-gnu-0.4.0",
    "dest-filename": ".cargo-checksum.json"
  },
  {
    "type": "archive",
    "archive-type": "tar-gzip",
    "url": "https://static.crates.io/crates/winapi-x86_64-pc-windows-gnu/winapi-x86_64-pc-windows-gnu-0.4.0.crate",
    "sha256": "712e227841d057c1ee1cd2fb22fa7e5a5461ae8e48fa2ca79ec42cfc1931183f",
    "dest": "cargo/vendor/winapi-x86_64-pc-windows-gnu-0.4.0"
  },
  {
    "type": "inline",
    "contents": "{\"package\": \"712e227841d057c1ee1cd2fb22fa7e5a5461ae8e48fa2ca79ec42cfc1931183f\", \"files\": {}}",
    "dest": "cargo/vendor/winapi-x86_64-pc-windows-gnu-0.4.0",
    "dest-filename": ".cargo-checksum.json"
  },
  {
    "type": "archive",
    "archive-type": "tar-gzip",
    "url": "https://static.crates.io/crates/windows/windows-0.34.0.crate",
    "sha256": "45296b64204227616fdbf2614cefa4c236b98ee64dfaaaa435207ed99fe7829f",
    "dest": "cargo/vendor/windows-0.34.0"
  },
  {
    "type": "inline",
    "contents": "{\"package\": \"45296b64204227616fdbf2614cefa4c236b98ee64dfaaaa435207ed99fe7829f\", \"files\": {}}",
    "dest": "cargo/vendor/windows-0.34.0",
    "dest-filename": ".cargo-checksum.json"
  },
  {
    "type": "archive",
    "archive-type": "tar-gzip",
    "url": "https://static.crates.io/crates/windows_aarch64_msvc/windows_aarch64_msvc-0.34.0.crate",
    "sha256": "17cffbe740121affb56fad0fc0e421804adf0ae00891205213b5cecd30db881d",
    "dest": "cargo/vendor/windows_aarch64_msvc-0.34.0"
  },
  {
    "type": "inline",
    "contents": "{\"package\": \"17cffbe740121affb56fad0fc0e421804adf0ae00891205213b5cecd30db881d\", \"files\": {}}",
    "dest": "cargo/vendor/windows_aarch64_msvc-0.34.0",
    "dest-filename": ".cargo-checksum.json"
  },
  {
    "type": "archive",
    "archive-type": "tar-gzip",
    "url": "https://static.crates.io/crates/windows_i686_gnu/windows_i686_gnu-0.34.0.crate",
    "sha256": "2564fde759adb79129d9b4f54be42b32c89970c18ebf93124ca8870a498688ed",
    "dest": "cargo/vendor/windows_i686_gnu-0.34.0"
  },
  {
    "type": "inline",
    "contents": "{\"package\": \"2564fde759adb79129d9b4f54be42b32c89970c18ebf93124ca8870a498688ed\", \"files\": {}}",
    "dest": "cargo/vendor/windows_i686_gnu-0.34.0",
    "dest-filename": ".cargo-checksum.json"
  },
  {
    "type": "archive",
    "archive-type": "tar-gzip",
    "url": "https://static.crates.io/crates/windows_i686_msvc/windows_i686_msvc-0.34.0.crate",
    "sha256": "9cd9d32ba70453522332c14d38814bceeb747d80b3958676007acadd7e166956",
    "dest": "cargo/vendor/windows_i686_msvc-0.34.0"
  },
  {
    "type": "inline",
    "contents": "{\"package\": \"9cd9d32ba70453522332c14d38814bceeb747d80b3958676007acadd7e166956\", \"files\": {}}",
    "dest": "cargo/vendor/windows_i686_msvc-0.34.0",
    "dest-filename": ".cargo-checksum.json"
  },
  {
    "type": "archive",
    "archive-type": "tar-gzip",
    "url": "https://static.crates.io/crates/windows_x86_64_gnu/windows_x86_64_gnu-0.34.0.crate",
    "sha256": "cfce6deae227ee8d356d19effc141a509cc503dfd1f850622ec4b0f84428e1f4",
    "dest": "cargo/vendor/windows_x86_64_gnu-0.34.0"
  },
  {
    "type": "inline",
    "contents": "{\"package\": \"cfce6deae227ee8d356d19effc141a509cc503dfd1f850622ec4b0f84428e1f4\", \"files\": {}}",
    "dest": "cargo/vendor/windows_x86_64_gnu-0.34.0",
    "dest-filename": ".cargo-checksum.json"
  },
  {
    "type": "archive",
    "archive-type": "tar-gzip",
    "url": "https://static.crates.io/crates/windows_x86_64_msvc/windows_x86_64_msvc-0.34.0.crate",
    "sha256": "d19538ccc21819d01deaf88d6a17eae6596a12e9aafdbb97916fb49896d89de9",
    "dest": "cargo/vendor/windows_x86_64_msvc-0.34.0"
  },
  {
    "type": "inline",
    "contents": "{\"package\": \"d19538ccc21819d01deaf88d6a17eae6596a12e9aafdbb97916fb49896d89de9\", \"files\": {}}",
    "dest": "cargo/vendor/windows_x86_64_msvc-0.34.0",
    "dest-filename": ".cargo-checksum.json"
  }
]